{
    "name": "PlayerControls",
    "maps": [
        {
            "name": "Player",
            "id": "b1d92ef0-180d-4bad-a5c0-4a24afdfc71b",
            "actions": [
                {
                    "name": "Up",
                    "type": "Button",
                    "id": "bbd2960e-b8dd-448c-a06d-b9d443f05c2b",
                    "expectedControlType": "Button",
                    "processors": "",
                    "interactions": ""
                },
                {
                    "name": "Up Tap",
                    "type": "Button",
                    "id": "ad829e23-09eb-4502-9f27-4157054ff7f0",
                    "expectedControlType": "Button",
                    "processors": "",
                    "interactions": ""
                },
                {
                    "name": "Right",
                    "type": "Button",
                    "id": "9cfd5b61-fa2a-43a8-a8d1-d0de6dc891c3",
                    "expectedControlType": "Button",
                    "processors": "",
                    "interactions": ""
                },
                {
                    "name": "Right Tap",
                    "type": "Button",
                    "id": "0c6f67da-ad99-4182-8101-8e8160095b1f",
                    "expectedControlType": "Button",
                    "processors": "",
                    "interactions": ""
                },
                {
                    "name": "Down",
                    "type": "Button",
                    "id": "121b5af1-095d-44d3-96ec-41a2c79fd15b",
                    "expectedControlType": "Button",
                    "processors": "",
                    "interactions": ""
                },
                {
                    "name": "Down Tap",
                    "type": "Button",
                    "id": "0b8337e9-72fe-4d0f-b278-95d2a567aaad",
                    "expectedControlType": "Button",
                    "processors": "",
                    "interactions": ""
                },
                {
                    "name": "Left",
                    "type": "Button",
                    "id": "15e38deb-bf8f-4100-ba29-e2a80cc3123d",
                    "expectedControlType": "Button",
                    "processors": "",
                    "interactions": ""
                },
                {
                    "name": "Left Tap",
                    "type": "Button",
                    "id": "01278ea9-82e6-417d-8abf-e7d67b01b588",
                    "expectedControlType": "Button",
                    "processors": "",
                    "interactions": ""
                },
                {
                    "name": "Confirm",
                    "type": "Button",
                    "id": "22c42bd5-b7c2-4a7a-a2fe-8dd2a9775aea",
                    "expectedControlType": "Button",
                    "processors": "",
                    "interactions": ""
                },
                {
                    "name": "Cancel",
                    "type": "Button",
                    "id": "504d1ca7-d6b1-43d8-85d4-d2189fcb1295",
                    "expectedControlType": "Button",
                    "processors": "",
                    "interactions": ""
                }
            ],
            "bindings": [
                {
                    "name": "",
                    "id": "83cbce57-aa9f-4e25-8224-1cf8ddef50c9",
                    "path": "<Keyboard>/leftArrow",
                    "interactions": "Hold(duration=0.3),MultiTap",
                    "processors": "",
                    "groups": "",
                    "action": "Left",
                    "isComposite": false,
                    "isPartOfComposite": false
                },
                {
                    "name": "",
                    "id": "43b0a369-7cae-4b14-831b-b866995613fb",
                    "path": "<Keyboard>/rightArrow",
                    "interactions": "Hold(duration=0.3),MultiTap",
                    "processors": "",
                    "groups": "",
                    "action": "Right",
                    "isComposite": false,
                    "isPartOfComposite": false
                },
                {
                    "name": "",
                    "id": "1a3c4cd0-745c-4f85-a313-0b9bd7068809",
                    "path": "<Keyboard>/upArrow",
                    "interactions": "Hold(duration=0.3),MultiTap",
                    "processors": "",
                    "groups": "",
                    "action": "Up",
                    "isComposite": false,
                    "isPartOfComposite": false
                },
                {
                    "name": "",
                    "id": "726fe879-a0f4-4cfb-9b52-6024121facb4",
                    "path": "<Keyboard>/downArrow",
                    "interactions": "Hold(duration=0.3),MultiTap",
                    "processors": "",
                    "groups": "",
                    "action": "Down",
                    "isComposite": false,
                    "isPartOfComposite": false
                },
                {
                    "name": "",
                    "id": "3145238c-e894-4177-abe8-3c0638e9346f",
                    "path": "<Keyboard>/space",
                    "interactions": "",
                    "processors": "",
                    "groups": "",
                    "action": "Confirm",
                    "isComposite": false,
                    "isPartOfComposite": false
                },
                {
                    "name": "",
                    "id": "5f85ac6c-38e9-47c9-8c21-71ae66d79ac7",
                    "path": "<Keyboard>/escape",
                    "interactions": "",
                    "processors": "",
                    "groups": "",
                    "action": "Cancel",
                    "isComposite": false,
                    "isPartOfComposite": false
                },
                {
                    "name": "",
                    "id": "1bdd1373-7d5f-4399-b4f0-51e124a0433c",
                    "path": "<Keyboard>/upArrow",
                    "interactions": "",
                    "processors": "",
                    "groups": "",
                    "action": "Up Tap",
                    "isComposite": false,
                    "isPartOfComposite": false
                },
                {
                    "name": "",
                    "id": "80f55b5f-3ebe-4054-bbc0-93f976e0c31c",
                    "path": "<Keyboard>/rightArrow",
                    "interactions": "",
                    "processors": "",
                    "groups": "",
                    "action": "Right Tap",
                    "isComposite": false,
                    "isPartOfComposite": false
                },
                {
                    "name": "",
                    "id": "d2b3f4a2-56af-4109-96e5-d849ffccb989",
                    "path": "<Keyboard>/downArrow",
                    "interactions": "",
                    "processors": "",
                    "groups": "",
                    "action": "Down Tap",
                    "isComposite": false,
                    "isPartOfComposite": false
                },
                {
                    "name": "",
                    "id": "1c18be07-c891-4087-b7a1-159b53dd06fc",
                    "path": "<Keyboard>/leftArrow",
                    "interactions": "",
                    "processors": "",
                    "groups": "",
                    "action": "Left Tap",
                    "isComposite": false,
                    "isPartOfComposite": false
                }
            ]
        }
    ],
    "controlSchemes": []
}